<?xml version="1.0" encoding="utf-8"?>
<!-- Generator: Adobe Illustrator 24.0.1, SVG Export Plug-In . SVG Version: 6.00 Build 0)  -->
<svg version="1.1"
	 id="svg2" xmlns:cc="http://creativecommons.org/ns#" xmlns:dc="http://purl.org/dc/elements/1.1/" xmlns:inkscape="http://www.inkscape.org/namespaces/inkscape" xmlns:rdf="http://www.w3.org/1999/02/22-rdf-syntax-ns#" xmlns:sodipodi="http://sodipodi.sourceforge.net/DTD/sodipodi-0.dtd" xmlns:svg="http://www.w3.org/2000/svg"
	 xmlns="http://www.w3.org/2000/svg" xmlns:xlink="http://www.w3.org/1999/xlink" x="0px" y="0px" viewBox="0 0 841.9 510.2"
	 style="enable-background:new 0 0 841.9 510.2;" xml:space="preserve">
<style type="text/css">
	.st0{display:none;}
	.st1{display:inline;stroke:#557D80;stroke-width:2.337;stroke-linejoin:round;stroke-dasharray:2.337,4.674;}
	.st2{display:inline;fill:#1B2D33;}
	.st3{display:inline;fill:#5D555E;}
	.st4{display:inline;enable-background:new    ;}
	.st5{fill:#447F48;}
	.st6{fill:#29505B;}
	.st7{fill:#C1D2D6;}
	.st8{fill-rule:evenodd;clip-rule:evenodd;fill:#29505B;}
	.st9{fill:#AAB686;}
	.st10{fill:#FFFFFF;}
</style>
<sodipodi:namedview  bordercolor="#666666" borderopacity="1.0" id="base" inkscape:current-layer="layer6" inkscape:cx="1024" inkscape:cy="926.47619" inkscape:document-units="px" inkscape:pageopacity="0.0" inkscape:pageshadow="2" inkscape:snap-page="false" inkscape:window-height="1028" inkscape:window-maximized="1" inkscape:window-width="1920" inkscape:window-x="-8" inkscape:window-y="-8" inkscape:zoom="0.41015625" pagecolor="#ffffff" showgrid="false">
	</sodipodi:namedview>
<g id="layer5" inkscape:groupmode="layer" inkscape:label="BG square" class="st0">
	<rect id="rect3989" x="-1545.4" y="-742.9" class="st1" width="1732.6" height="1767.1"/>
</g>
<g id="layer2" inkscape:groupmode="layer" inkscape:label="earth" class="st0">
	<path id="path3099" inkscape:connector-curvature="0" class="st2" d="M-817.4,1100.9c-65.6-12.3-80.5-18.5-147.6-61.4
		c-30.8-19.7-68-41.9-82.7-49.3c-31.9-16.2-71.5-17.9-77.1-3.4c-6.6,17.2-24.5,11.4-81.7-26.4c-253.7-167.6-407.4-439.9-421.5-746.9
		c-5.9-129.2,20-280.3,66.6-387.8c17-39.1,26-40.5,83.5-13.1c88.6,42.2,119.6,111.3,84.5,188.1c-7.4,16.1-13.4,31.3-13.4,33.6
		c0,2.4,27.7,34.6,61.6,71.5c33.9,37,67.3,79.3,74.3,94.1c40.6,85.7-19.8,167.8-165.6,224.9c-19.4,7.6-19.5,7.8-16.3,56.4
		c4,61.6,34.4,126.7,77.8,166.4c36.4,33.3,63.2,45.1,115,50.4c110.2,11.4,219.9,73.6,347.8,197.3c62.7,60.6,66.6,61.5,91.2,20
		c9.7-16.4,13.4-34.2,13-63.2c-0.6-44.7-5-55.1-64.3-151.3c-48.1-78.1-60.7-118.2-46.6-147.8c5.4-11.3,25-31.9,43.7-45.9
		c31.6-23.6,34-27.6,36-58.1c2.6-39.9-25.7-102.3-62.2-137.4c-20.3-19.5-31.4-23.9-78.9-31.5c-57.7-9.2-131.1-39.4-184.7-76
		c-24-16.4-33.8-30.2-55-77.5c-14.2-31.7-24.1-62-22-67.4c7.6-19.6,185-64.5,254.2-64.4c19.7,0,45.3,6.6,68.7,17.6
		c83,39.1,161.7,14.6,212.1-66.2c15.8-25.4,14.5-33.5-9.6-56.1C-755-145.8-817.9-227.9-839-269.3c-38.3-75.3-23.8-132.5,54.7-215.1
		l44.1-46.4l-23.5-19.6c-31.7-26.4-109.2-63.9-158.9-76.9c-22.3-5.8-65-12.3-94.8-14.4c-95.4-6.8-99.8-23.7-14.6-56.4
		c340.3-130.6,710.7-64.1,987.3,177.2c47.9,41.8,108.8,111.5,104,119.2c-1.9,3-20.9,0.5-42.3-5.5c-27.9-7.9-66.8-11-137.1-11
		c-108.5,0-136.5,6.9-198.1,48.9c-47.2,32.2-62.5,69-63.1,151.6l-0.5,66.4l-29.6,14.3c-45.9,22.1-57.7,43.1-56.8,100.5
		C-466.7,63.6-412.8,129.4-277,197c59.2,29.4,65.3,42.2,24,49.9c-46,8.6-102.2,83.7-118.3,158.1c-5.7,26.2-4.8,53.2,4,121.3
		c13.5,104.7,7.1,174.6-24.7,274c-11,34.3-18.3,65-16.2,68.3c4.9,8,124.9,16.7,151,11c37.3-8.1,71.1-45.2,113.7-124.8
		c53-99,80.1-129.1,142.6-158.5c51.8-24.4,70-42.4,97.9-97c11.2-21.8,15.6-42.4,16-74c0.8-70.6-17.5-99.1-132.1-206.4l-44.5-41.7
		l-7-52.4c-3.8-28.8-5.1-54.6-2.7-57.3c2.3-2.7,23.5,1.1,47.1,8.4C-2.7,83.2,24,89.1,33.1,89.1c26.7,0,58.1-16.4,88.4-46.2
		c15.5-15.3,33.1-27.8,39-27.8c16.7,0,55.1,39.5,81.5,83.7c22.3,37.4,23.9,43.7,23.8,97.5c-0.1,77.7-16,178.1-41.1,258.5
		c-77.9,249.6-246.9,446.6-485.3,565.9c-64.7,32.4-76,34.7-98.5,20.3c-18.2-11.6-83.8-24-126.8-24c-48.6,0-100,18.1-157.9,55.5
		C-705,1112.2-733.1,1116.7-817.4,1100.9L-817.4,1100.9z"/>
</g>
<g id="layer7" inkscape:groupmode="layer" inkscape:label="toinen verkko" class="st0">
	<path id="path3095" inkscape:connector-curvature="0" class="st3" d="M-1256.6,1018.2c31.3-17.6,36.2-56.5,11.3-90.5
		c-14.4-19.7-16.4-26.6-13.8-47c1.7-13.2,4.6-48.1,6.6-77.6c2.5-38,6.3-57.2,13-65.6c5.2-6.6,11-16.7,12.9-22.5
		c3.4-10.3,99.5-81.9,110.1-81.9c2.9,0,15.1,7.4,27.1,16.4c18.8,14.2,27.1,16.4,61.5,16.4c32.6,0,42.7-2.4,56.4-13.4
		c9.2-7.4,19.7-13.4,23.4-13.4c11.9,0,109.9,62,113,71.4c1.6,5,7.3,14.5,12.6,21c6.4,7.9,12.7,34.5,18.7,79.1
		c8.7,64.9,8.7,67.7-1.4,83.5c-15.6,24.5-17.8,35.1-11.4,55.1c6.1,19.1,28.8,35.8,48.6,35.8c18.1,0,43.7-31.5,43.7-53.7
		c0-18.4-20.5-48.2-37.3-54.3c-4-1.5-13.2-32-21.1-70.3c-19.1-92.8-20.3-90.8,63.2-108.3c60.8-12.8,66.8-13.1,75.8-4.2
		c25.5,25,65.2,15.1,78.3-19.4c14.2-37.3-18.4-77.2-55.7-68.2c-14.1,3.4-25.7,15.2-40.2,41.1c-3.2,5.7-29.6,17-63.5,27.3
		c-78,23.5-95.7,20.4-158.4-27.7c-36.5-28-46-38.3-43.9-47.3c2.8-12.1,2.4-72.2-0.8-98.8c-1.6-13.3,14.3-35.4,99.5-138.6
		c93.1-112.8,102.9-122.9,119.5-122.9c20.9-0.1,37.9-8.7,50.4-25.6c8.5-11.5,13.4-11.7,165.5-7.4l156.8,4.4l16.1,28.2
		c26.7,46.8,78.2,65.1,133,47.2c19.8-6.4,23.1-5.4,68.5,22.4c26.3,16,51.7,35.9,56.5,44.1c4.8,8.2,11,16.7,13.8,18.8
		c5.4,4.1,19.5,96.5,19.7,128.7c0.1,10.6-4.8,28-10.8,38.8c-14.6,26.1-13.8,41.8,3.2,63.8c28.1,36.3,81.2,15,81.2-32.5
		c0-19-3.6-26-22.4-44c-20.8-19.9-23.2-25.5-34-79.7c-13.7-69.1-14.1-78.3-3.6-89.6c4.4-4.8,35.4-14.3,69-21.3l61.1-12.7l15.4,11.9
		c21.2,16.5,46.6,15.4,63.3-2.7c28.1-30.6,9.7-86.8-28.4-86.8c-25,0-36.8,7.3-49.7,31.2c-9.6,17.7-16.1,21.2-67.9,36.5
		c-75,22.2-96.7,19.2-151.4-21c-21.8-16-39.7-31.2-39.7-33.7c0-2.5,4.9-15.1,11-27.9c15.6-33.3,14.5-76.6-2.9-109.7
		c-15.9-30.3-21.6-18.1,48.9-103.4C-56.7-18.9-39.5-35-31-35c6.7,0,15.6-4.4,19.7-9.8c6.5-8.6,17.3-9.4,85.9-6.3l78.5,3.5l21.6,21.3
		c29.4,29,53.7,29.3,79.7,1c21-22.8,24.2-46.2,10.4-75.3c-10.5-22-23.7-29.7-51-29.7c-17.7,0-25.6,4.2-43.3,22.9l-21.7,22.9L75.2-81
		c-59,2.9-75.9,1.9-85.6-5c-6.7-4.7-17-8.6-22.9-8.6c-7,0-29-23.4-62.8-66.8l-52-66.8l3-27.7c2.7-24.5,1.2-29.9-12.7-46.7
		c-37.6-45.4-100.7-17.2-100.7,45c0,9.2,7.2,23,18.6,35.4c16,17.5,22.3,20.3,45.1,20.3c26.2,0,27.1,0.7,80,58
		c71.4,77.4,71.4,75.6-3.3,155.7c-53.6,57.5-57.7,60.6-71.6,54.8c-33.9-14-84.1-2.6-111.7,25.5c-7.1,7.2-17.7,23.2-23.5,35.5
		c-9.3,19.7-13,22.4-31,22.7c-11.2,0.2-80.8,3.8-154.7,8.1l-134.2,7.8l-18-17c-13.3-12.6-23.7-17-39.7-17
		c-21.5,0-22.7-1.2-123.4-129.6c-81.8-104.2-101-131.9-98-141.7c6.5-21,9.2-62.5,5.4-84.1c-7.3-42.2-58.7-85.7-101.7-86
		c-10.5-0.1-30.8,4.4-45.1,9.9c-14.2,5.6-26.6,8.9-27.6,7.5c-0.9-1.4-18.1-23-38.2-47.9c-49.1-60.8-53-77.9-37.1-161.1
		c11.2-58.3,13.2-63.3,33.9-83.2c18.4-17.7,22-24.8,22-43.7c0-31.5-17.9-51.5-46.1-51.5c-43.2,0-62.3,47.2-35,86.2l13.1,18.7
		l-9.3,70.5c-6.7,50.8-11.8,72.6-18.5,77.9c-7.4,5.9-21.9,5.2-73.2-3.4c-61.7-10.4-64.5-11.5-79.9-31.9c-21.2-28-46.9-29.3-70.4-3.7
		c-19.9,21.6-20.4,41.6-1.8,65.6c18.7,24.2,46.9,25.4,68.5,3l14.7-15.4l62.3,6c82.5,8,96.8,16.3,141.5,82l34.9,51.3l-9.1,27.7
		c-14.4,43.8-12,83,7.1,115.8c25.8,44.3,64.1,60.2,120.9,50.2L-968-83l108.2,118.3l108.2,118.3L-752,186l-0.3,32.5l-112.4,115.3
		c-84.6,86.8-114.7,114.3-121.7,111.2c-19.2-8.6-55.3-9.9-75.1-2.8c-27.4,9.9-60.9,43.6-68.7,69.3c-3.5,11.5-5.5,37.2-4.4,57.3
		l1.9,36.4l-51.4,40.8c-28.3,22.4-56.8,40.8-63.4,40.8c-14.3,0-23.3-10.4-68.1-78.8c-33.3-50.9-33.9-52.6-30.4-81.2
		c3.3-26.7,2.2-30.9-12.9-49.3c-21-25.6-52.9-28.2-74.5-6c-38.6,39.4-13.2,101.8,41.6,102.1c16.3,0.1,22.9,6.5,66,63.3
		c26.4,34.7,47.9,68.4,47.9,74.8c0,6.4,2.3,16.4,5.2,22.2c3.5,7.1,1.5,35.8-6.2,87.6c-11.3,76-11.7,77.3-32.4,96.7
		c-26,24.4-32.4,51.8-18.2,77.8C-1313.3,1025.7-1285.1,1034.3-1256.6,1018.2L-1256.6,1018.2z"/>
</g>
<g id="layer3" inkscape:groupmode="layer" inkscape:label="earth2">
</g>
<g id="layer6" inkscape:groupmode="layer" inkscape:label="Teksti" class="st0">
	
		<text transform="matrix(1.1124 0 0 1 -1717.2264 1153.9305)" style="display:inline;fill:#FAEECB; font-family:'Tahoma-Bold'; font-size:644.1033px;">KOTO</text>
	<g class="st4">
		
			<text transform="matrix(1.1124 0 0 1 -1717.2264 1153.9305)" style="fill:none;stroke:#000000;stroke-width:53.6899; font-family:'Tahoma-Bold'; font-size:644.1033px;">KOTO</text>
	</g>
	<text transform="matrix(1 0 0 1 930.9627 -136.5541)" style="display:inline; font-family:'MyriadPro-Regular'; font-size:40px;">5</text>
</g>
<g>
	<path class="st5" d="M1000,537.4l43.3-59h12.8l-36.6,49.3l37.9,53.3H1044l-31.7-45.2L1000,552v29h-11.3V478.4h11.3V537.4z"/>
	<path class="st5" d="M1079.1,482c5.4-3.3,11.8-5,19.3-5s14,1.7,19.3,5c5.4,3.3,9.3,7.8,12,13.5c1.5,3.2,2.6,7,3.4,11.4
		c0.7,4.4,1.2,8.1,1.3,11c0.1,2.9,0.1,6.8,0.1,11.7c0,4.9,0,8.8-0.1,11.7c-0.1,2.9-0.5,6.6-1.3,11c-0.7,4.4-1.9,8.3-3.4,11.4
		c-2.6,5.7-6.6,10.1-12,13.5c-5.4,3.3-11.8,5-19.3,5s-14-1.7-19.3-5c-5.4-3.3-9.3-7.8-12-13.5c-1.5-3.2-2.6-7-3.4-11.4
		c-0.7-4.4-1.2-8.1-1.3-11c-0.1-2.9-0.1-6.8-0.1-11.7c0-4.9,0-8.8,0.1-11.7c0.1-2.9,0.5-6.6,1.3-11c0.7-4.4,1.9-8.3,3.4-11.4
		C1069.8,489.8,1073.8,485.3,1079.1,482z M1111.5,490.4c-3.5-2.1-7.8-3.2-13-3.2c-5.1,0-9.4,1.1-13,3.2c-3.5,2.1-6.2,5.1-7.9,8.9
		c-1.2,2.6-2.1,5.8-2.7,9.6c-0.6,3.8-1,7.1-1.1,9.9c-0.1,2.7-0.1,6.4-0.1,10.9c0,4.5,0,8.2,0.1,10.9c0.1,2.7,0.4,6,1.1,9.9
		c0.6,3.8,1.5,7,2.7,9.6c1.7,3.8,4.4,6.8,7.9,8.9c3.5,2.1,7.8,3.2,13,3.2c5.1,0,9.4-1.1,13-3.2c3.5-2.1,6.2-5.1,7.9-8.9
		c1.2-2.6,2.1-5.8,2.7-9.6c0.6-3.8,1-7.1,1.1-9.9c0.1-2.7,0.1-6.4,0.1-10.9c0-4.5,0-8.2-0.1-10.9c-0.1-2.7-0.4-6-1.1-9.9
		c-0.6-3.8-1.5-7-2.7-9.6C1117.6,495.5,1115,492.5,1111.5,490.4z"/>
	<path class="st5" d="M1141.7,478.3h67.2v10.1h-28V581h-11.3v-92.5h-28V478.3z"/>
	<path class="st5" d="M1232.9,482c5.4-3.3,11.8-5,19.3-5c7.5,0,14,1.7,19.3,5c5.4,3.3,9.3,7.8,12,13.5c1.5,3.2,2.6,7,3.4,11.4
		c0.7,4.4,1.2,8.1,1.3,11c0.1,2.9,0.1,6.8,0.1,11.7c0,4.9,0,8.8-0.1,11.7c-0.1,2.9-0.5,6.6-1.3,11c-0.7,4.4-1.9,8.3-3.4,11.4
		c-2.6,5.7-6.6,10.1-12,13.5c-5.4,3.3-11.8,5-19.3,5c-7.5,0-14-1.7-19.3-5c-5.4-3.3-9.3-7.8-12-13.5c-1.5-3.2-2.6-7-3.4-11.4
		c-0.7-4.4-1.2-8.1-1.3-11c-0.1-2.9-0.1-6.8-0.1-11.7c0-4.9,0-8.8,0.1-11.7c0.1-2.9,0.5-6.6,1.3-11c0.7-4.4,1.9-8.3,3.4-11.4
		C1223.5,489.8,1227.5,485.3,1232.9,482z M1265.2,490.4c-3.5-2.1-7.8-3.2-13-3.2c-5.1,0-9.4,1.1-13,3.2c-3.5,2.1-6.2,5.1-7.9,8.9
		c-1.2,2.6-2.1,5.8-2.7,9.6c-0.6,3.8-1,7.1-1.1,9.9c-0.1,2.7-0.1,6.4-0.1,10.9c0,4.5,0,8.2,0.1,10.9c0.1,2.7,0.4,6,1.1,9.9
		c0.6,3.8,1.5,7,2.7,9.6c1.7,3.8,4.4,6.8,7.9,8.9c3.5,2.1,7.8,3.2,13,3.2c5.1,0,9.4-1.1,13-3.2c3.5-2.1,6.2-5.1,7.9-8.9
		c1.2-2.6,2.1-5.8,2.7-9.6c0.6-3.8,1-7.1,1.1-9.9c0.1-2.7,0.1-6.4,0.1-10.9c0-4.5,0-8.2-0.1-10.9c-0.1-2.7-0.4-6-1.1-9.9
		c-0.6-3.8-1.5-7-2.7-9.6C1271.3,495.5,1268.7,492.5,1265.2,490.4z"/>
	<path class="st6" d="M1020.4,598.3c9.8,0,18.8,2.9,27.1,8.8l-5.8,8.7c-6.9-4.9-14-7.3-21.3-7.3c-10,0-16.9,4.1-20.4,12.3
		c-1.5,3.5-2.5,7.7-3,12.5c-0.4,4.8-0.7,10.7-0.7,17.7c0,7,0.2,12.8,0.7,17.7c0.4,4.8,1.4,9,3,12.5c3.6,8.2,10.4,12.3,20.4,12.3
		c8.9,0,16.7-2.9,23.5-8.6l6.4,8.4c-8.8,6.9-18.7,10.4-29.9,10.4c-7.5,0-13.9-1.7-19.2-5c-5.3-3.3-9.2-7.9-11.8-13.6
		c-1.3-2.9-2.3-6.4-3-10.6c-0.7-4.2-1.1-7.9-1.2-11.1c-0.1-3.2-0.2-7.3-0.2-12.4c0-7.7,0.3-14.3,0.8-19.8c0.6-5.5,1.8-10.2,3.6-14.3
		c2.7-5.8,6.6-10.3,11.9-13.7C1006.7,600,1013,598.3,1020.4,598.3z"/>
	<path class="st6" d="M1077.2,625.3c3.9-1.7,8.3-2.5,13-2.5c4.8,0,9.1,0.8,13,2.5c3.9,1.7,7.1,3.9,9.6,6.6c1.9,2.1,3.5,4.4,4.7,6.9
		c1.2,2.5,2,5.3,2.5,8.3c0.5,3.1,0.7,5.6,0.8,7.6c0.1,2,0.1,4.8,0.1,8.4c0,3.6,0,6.4-0.1,8.4c-0.1,2-0.4,4.5-0.8,7.6
		c-0.5,3.1-1.3,5.8-2.5,8.3c-1.2,2.5-2.7,4.8-4.7,6.9c-2.5,2.8-5.7,5-9.6,6.6c-3.9,1.7-8.3,2.5-13,2.5c-4.8,0-9.1-0.8-13-2.5
		c-3.9-1.7-7.1-3.9-9.6-6.6c-1.9-2.1-3.5-4.4-4.7-6.9c-1.2-2.5-2-5.3-2.5-8.3c-0.5-3.1-0.7-5.6-0.8-7.6c-0.1-2-0.1-4.8-0.1-8.4
		c0-3.6,0-6.4,0.1-8.4c0.1-2,0.4-4.5,0.8-7.6c0.5-3.1,1.3-5.8,2.5-8.3c1.2-2.5,2.7-4.8,4.7-6.9
		C1070,629.1,1073.2,626.9,1077.2,625.3z M1090.2,632.5c-6.3,0-11.1,1.9-14.4,5.7c-1.3,1.5-2.4,3.2-3.2,5c-0.8,1.9-1.4,4-1.7,6.5
		c-0.3,2.5-0.5,4.6-0.6,6.2c-0.1,1.7-0.1,4-0.1,7.1c0,3.1,0,5.5,0.1,7.1c0.1,1.7,0.3,3.7,0.6,6.2c0.3,2.5,0.9,4.7,1.7,6.5
		c0.8,1.9,1.8,3.5,3.2,5c3.3,3.8,8.1,5.7,14.4,5.7c6.3,0,11.1-1.9,14.4-5.7c1.3-1.5,2.4-3.2,3.2-5c0.8-1.9,1.4-4,1.7-6.5
		c0.3-2.5,0.5-4.6,0.6-6.2c0.1-1.7,0.1-4,0.1-7.1c0-3.1,0-5.5-0.1-7.1c-0.1-1.7-0.3-3.7-0.6-6.2c-0.3-2.5-0.9-4.7-1.7-6.5
		c-0.8-1.9-1.8-3.5-3.2-5C1101.3,634.4,1096.5,632.5,1090.2,632.5z"/>
	<path class="st6" d="M1155.2,625.3c3.9-1.7,8.3-2.5,13-2.5c4.8,0,9.1,0.8,13,2.5c3.9,1.7,7.1,3.9,9.6,6.6c1.9,2.1,3.5,4.4,4.7,6.9
		c1.2,2.5,2,5.3,2.5,8.3c0.5,3.1,0.7,5.6,0.8,7.6c0.1,2,0.1,4.8,0.1,8.4c0,3.6,0,6.4-0.1,8.4c-0.1,2-0.4,4.5-0.8,7.6
		c-0.5,3.1-1.3,5.8-2.5,8.3c-1.2,2.5-2.7,4.8-4.7,6.9c-2.5,2.8-5.7,5-9.6,6.6c-3.9,1.7-8.3,2.5-13,2.5c-4.8,0-9.1-0.8-13-2.5
		c-3.9-1.7-7.1-3.9-9.6-6.6c-1.9-2.1-3.5-4.4-4.7-6.9c-1.2-2.5-2-5.3-2.5-8.3c-0.5-3.1-0.7-5.6-0.8-7.6c-0.1-2-0.1-4.8-0.1-8.4
		c0-3.6,0-6.4,0.1-8.4c0.1-2,0.4-4.5,0.8-7.6c0.5-3.1,1.3-5.8,2.5-8.3c1.2-2.5,2.7-4.8,4.7-6.9
		C1148.1,629.1,1151.3,626.9,1155.2,625.3z M1168.3,632.5c-6.3,0-11.1,1.9-14.4,5.7c-1.3,1.5-2.4,3.2-3.2,5c-0.8,1.9-1.4,4-1.7,6.5
		c-0.3,2.5-0.5,4.6-0.6,6.2s-0.1,4-0.1,7.1c0,3.1,0,5.5,0.1,7.1c0.1,1.7,0.3,3.7,0.6,6.2c0.3,2.5,0.9,4.7,1.7,6.5
		c0.8,1.9,1.8,3.5,3.2,5c3.3,3.8,8.1,5.7,14.4,5.7c6.3,0,11.1-1.9,14.4-5.7c1.3-1.5,2.4-3.2,3.2-5c0.8-1.9,1.4-4,1.7-6.5
		c0.3-2.5,0.5-4.6,0.6-6.2c0.1-1.7,0.1-4,0.1-7.1c0-3.1,0-5.5-0.1-7.1c-0.1-1.7-0.3-3.7-0.6-6.2c-0.3-2.5-0.9-4.7-1.7-6.5
		c-0.8-1.9-1.8-3.5-3.2-5C1179.4,634.4,1174.5,632.5,1168.3,632.5z"/>
	<path class="st6" d="M1249.6,622.8c4.9,0,9.4,1.1,13.4,3.2c4,2.1,7.1,4.9,9.4,8.4c2.4,3.7,4,7.7,4.7,12c0.7,4.3,1.1,9.9,1.1,16.8
		c0,6.9-0.4,12.5-1.1,16.8c-0.7,4.3-2.3,8.3-4.7,12c-2.3,3.5-5.4,6.3-9.4,8.4c-4,2.1-8.5,3.2-13.4,3.2c-8.1,0-15-3.2-20.6-9.5v38.3
		h-10.9V623.9h10.9v8.3C1234.6,625.9,1241.5,622.8,1249.6,622.8z M1248.1,632.5c-6.5,0-11.4,2.4-14.9,7.1c-1.8,2.5-3,5.6-3.6,9.1
		c-0.5,3.6-0.8,8.4-0.8,14.4c0,6,0.3,10.8,0.8,14.4c0.5,3.6,1.7,6.6,3.6,9.1c3.4,4.7,8.4,7.1,14.9,7.1c6.5,0,11.4-2.4,14.9-7.1
		c1.8-2.5,3-5.6,3.6-9.1c0.5-3.6,0.8-8.4,0.8-14.4c0-6-0.3-10.8-0.8-14.4c-0.5-3.6-1.7-6.6-3.6-9.1
		C1259.6,634.8,1254.6,632.5,1248.1,632.5z"/>
</g>
<text transform="matrix(1 0 0 1 958.5132 185.4709)"><tspan x="0" y="0" class="st5" style="font-family:'Gidole-Regular'; font-size:202.6477px; letter-spacing:-2;">Koto</tspan><tspan x="390.8" y="0" class="st6" style="font-family:'Gidole-Regular'; font-size:202.6477px; letter-spacing:-5;">  </tspan><tspan x="0" y="165.7" class="st6" style="font-family:'Gidole-Regular'; font-size:202.6477px; letter-spacing:-10;">Coop</tspan></text>
<g>
	<g>
		<g id="layer4" inkscape:groupmode="layer" inkscape:label="BG round">
			<g id="path3781">
				
					<path sodipodi:cx="1027.6528" sodipodi:cy="1030.088" sodipodi:rx="1017.912" sodipodi:ry="1027.6528" sodipodi:type="arc" class="st7" d="
					M436.7,255.1c0,107.7-86.9,195.1-194.1,195.1S48.5,362.8,48.5,255.1c0-107.7,86.9-195.1,194.1-195.1S436.7,147.4,436.7,255.1z"
					/>
			</g>
			
				<path id="path3978" sodipodi:cx="1088.5327" sodipodi:cy="1067.8335" sodipodi:rx="1027.6528" sodipodi:ry="1026.4352" sodipodi:type="arc" class="st5" d="
				M422.6,254.4c0,98.6-80.6,178.6-180,178.7c-99.4,0-180.1-79.9-180.1-178.6c0,0,0,0,0-0.1c0-98.7,80.6-178.6,180-178.7
				C341.9,75.7,422.5,155.7,422.6,254.4C422.6,254.4,422.6,254.4,422.6,254.4z"/>
		</g>
		<g id="layer8" inkscape:groupmode="layer" inkscape:label="pearth">
			<path id="path16" inkscape:connector-curvature="0" class="st8" d="M191.4,186.7c15.4,4.8-17.5,20.6-6.9,9.8
				c2.8-3.5-1-7.9,5.8-8.6l0.4-0.9L191.4,186.7L191.4,186.7z M162.8,124.7c11.2-3.4,12.1-8.8,23.4-14c2.3-5.5,7.6-7.5,12.1-10.4
				c-10.1,1.9-2-7.4-12.3,0.5c4.4-7.6-13.9-2.4-1-2.6c-6.4,7.2-19.8,18.8-29.9,24.6c-1.7-1.2,12.8-13.3,0.2-3.2
				c-4,7.3-16.4,9.8-8,0.9c6.1-3.2,3.8-10.7,8.5-6.4c7.9-3.4,6.1-4.2,13.7-8.3c-6.5-1.5-15,5.5-21.7,7.1c17.8-14.6-11.2-2.5-15,6.2
				c-6.5,6.6-22.1,20.1-6.8,8.4c3.6,2,22.6-20.2,20.7-8.6c-4.2,3.9-5.8,7.2-10.7,9.7c-7.9,8.4,15.7-7.4,1.2,4.4
				c-9.6,6.4-8.2,19.1-17.9,25.1c-6.3,2-8.1,18.2-9.8,12.5c-8.7-8,17.8-14.9,2.7-14.2c-1.2-3-1.9,4.6-5.3-0.1
				c-4.2,5.7,1,13.2-7.1,11.7c-7.6,0.1,10.1-8.5-3.6-6.1c-2.1-1-5.6,4.5-9.1,9.1c-9.9,7.2-13.2,18.2-17,30.5
				c-11.2,35.6-10.8,82.9,3.5,116.5c31.3,73.8,99.1,118.1,176.6,114.9c-7.3-3-23.9-13.4-8.7-20.1c-8.6-6-4.6-15.2-16.4-21.2
				c7.8-6.7,1.7-16.6-8.1-14.5c-8.8,1.3-13.5-9.2-22.6-4.7c-12.9,0.9-26.9-3.7-38.7-9.8c-11.1-10.6-23.2-23.8-22.4-38.7
				c2.9-8,4.7-13.2,2.8-20.8c9.3-8.2,13.3-21.3,26-21.2c-2.3-10.5,27.6-22.7,7.6-23.4c-0.3-10.3,1-13.5,5.2-23.6
				c-1.3-17.5,17.9,4.6,22.4-5.5c9.1-10.4-16.4-21.9,3.7-19.1c7.7,0.1,10.4-6.7,0.3-3.6c-7.8-0.6-14.8,1.3-4.8-5.3
				c-8.1-2.3,9.2-5.6,0.7-11.1c-0.5-3.1,3.6-4.4-0.7-4c-2.1-2.9,6.2-6.8-1-8.5c3.8-11,3.4-2,5.9-3.5c3.1-0.6,7,3.5,2,8
				c4.3,7.8,10,16.8,7.4,22.2c4.6-3.7,13.4-6.6,15.9-10.1c-6.7-12.6,13.5-18.7,4.5-7.4c-3.6,8.4,6.7,7.1,0,2.2
				c5.5,1.3,8.9-4.3,4.1-10.4c-0.9-8.4-10.4,7.2-12.4-2.7c-6.2-15,16.4-17.2,19.1-29.9c-5.4,1.2,12.8-16.8,20.7-8.4
				c8.7,0.4,25.9,11,7.9,8.8c0.5-0.6,2.7,9.6,8.8,8.3c6.9,1.6-4.7-5,1.4-4.4c-1.3-5,4.6-8.3-1.7-12.3c10.3-1.5,1.9,4.2,8.7,7.3
				c7.1,4.8-4.2-16.4,6.1-8.4c13-13.8-15.4-0.9-15.9-13.4c-5.8-9.8,3.4-17,3.3-3.6c2.5,9.7,13.6,6.9,21.2,8.3
				c3.4,0.7-17.8-9.2-10.9-12.5c4.9-1.6,6.8,0,3.8-3.1c-2-3.6-6.2-7.8-8.2-11.5c-12.9-7.2,16-0.1,6.1-7.6c-4.3,0.1,3.5-7.7-7.4-6
				c-7.8,5-21.9-8.4-6.9-0.8c11.6,0.9-12.1-9.9-17.8-10.5c-18.5-2.2-33.2-0.4-51.2,1.9c-9.9,1.3-8.2,8.4-0.8,6.9
				c-2,5.7-12.1,4.2-1.3,4.7c-6.8,2.9,13.9,3.7,4.5,9.6c5.6,2.6,14.3,6.9,8.4,8c11.9-0.3-8.5,9.6-9.1,14.6
				c-8.1,3.2-15,11.9-18.3,8.6c6,4.6-5.8,5.5-9.1,3.7c-8.1-2.9-19.6,5.1-27.6,10.6C142.7,155.1,152.3,129.7,162.8,124.7L162.8,124.7
				L162.8,124.7z M330.8,407.1c4.5-9.3,12.9-15.6,21.6-22.4c11.1-4.1-7.4,15.7-13.6,18.1C336.2,404.6,333.8,406.5,330.8,407.1
				L330.8,407.1z M332.9,393.9c-1.2,13.3-20.3,13.6-26.4,23.4c-6.2,3.1-19.4,11.8-3.8,6.1c39.9-14.5,61.1-35.4,74-48.6
				c29.4-30.2,47.9-75.9,46.9-125.7c-1.4-3.6-8.2-35.6-9.1-20.4c-0.1,16-0.5,32.1,0.9,48.1c-4.6,21.3-11.1-24.9-12.4-13.2
				c-4.7-1.1-5.2-3.6-11.1-6.5c-4.3,6.5-13.8,14.6-19.7,9.7c-4.1,12.6-14.6,1.8-18.6-1.2c-10,8.5,14.2,18,16.9,11.5
				c3.2-9.8,1.2-7.7,7.3-4c7.8,1.6,1.3,16.5-1.1,23.2c-6.3,8.5-9.5,20.6-20.1,27.5c-6,7.8-13.8,12.1-13.7-2
				c-7.1-10.3-16.3-12.6-22.1-24.3c-0.6-8.7-8-11.1-10-5.8c-5-3.3,7.5,14.1,10.4,16.5c4.6,13,12.9,22,25.9,25.8
				c1.1,17.5,28.3-26.9,21.3-4c-5,17.1-18.3,29.3-27.4,44C335.8,380.1,328.5,387.3,332.9,393.9L332.9,393.9z M306.4,389.7
				c5.7,0.2,13.3-9.6,6.1-8.8C307.6,381,307.7,386.3,306.4,389.7z M241.2,115.1c4.7-6.9,9.1,1.2,4.6,1.6c5.6,6.4-4.8-2.1-3.4,8
				C240.8,124.1,233.6,108.7,241.2,115.1z M252.3,154.3c1.1,7-12.7,11.6-1.1,17c-1.2,7.2-6.8,19.5-12.9,19.7
				c-8.2,5.9,10,5.2,12.9,0.6c6.7,2.8,5.2-3,6.5-6.6c-2.9-8.2,9.8,0.8,2.7-8.9c-7.2,6.2,4.6-6.9,9.2-4.9c-2.1-5.5-17.3,8.7-14.7-2.7
				C245.1,162.1,270.6,150.2,252.3,154.3L252.3,154.3z M285.8,221.9c0.6,3.9-1.1,10.3-4.1,15.2c7.4,8.9,22-6.8,33.2,0
				c13.8-8.7-16.3-21.4-18.9-7.6c-5.8-4.4,3.3-10.7-6-9.4C287.7,219.7,287.7,215.9,285.8,221.9L285.8,221.9z M341.4,238.1
				c9.2,5,19.2-4.5,7.9-10.4c-4.9-6.3-6.3-11.4-13-14.2c-3.4-1.4,7.3-16.3-4.1-9.4c-8,3.6-4.1,14.4,0.3,17.8
				C343.8,228.8,342.6,224.8,341.4,238.1L341.4,238.1z M228,257.2c-7.6,4.8-7-6.9-3.9-10.4c-0.6-3.9,6-13.9,3.7-2.4
				C226,247.9,230.6,252.9,228,257.2L228,257.2z M181.3,261.4c5.3,12.8,29.9-1.7,42.9,5.2c6.2-2.3,10.3-1,8.1,5.7
				c-9,3.3,2.7,8,5.7,7.2c8.7,1.2,10.8,9.1,20.3,10c7.4,2.2,2-16.8,15.1-10.5c2.8,4.4,8.9,2.2,14.1,3.4c8.7,2.9,13.3-7.5,21.6-6.1
				c2.8-6.5,2-26.2,1-23.2c-5,4.6-13.3,4.9-20.1,8.2c-3.5-2.6-6.7,3.2-7.8-6c-2.4-5.1-2.8-14.2-12.3-5.5c-2.8,0.6,8.8,6.9,6.4,10.2
				c-5.8-3.8-5.2-0.7-6.3,4.6c-5.4-3.3-9.6-17.4-17.2-23.8c-8.2-3.9-8.8-11.7-14.6-13.2c-4.5,11.8,19.6,19.8,15.8,23.2
				c-9.6-5.9,4.5,11-8.2,10.5c0.1,9-17.3-5.7-1.9-1.5c10.9-6.4-8.7-14-12.3-20.3c-3.4-13.8-12.4,6.9-19.4-4.6
				c-0.7,6.1-15.1,10.8-13.7,20.1C193.2,259.9,188.9,261.5,181.3,261.4L181.3,261.4z M183.4,149c0.4,0.1,6.4-10.1,5.6-4
				c14.1,1.8-0.8,15.3-8.2,6.1C181.7,150.5,182.6,149.8,183.4,149z"/>
		</g>
		<g id="layer1" transform="translate(0,995.63782)" inkscape:groupmode="layer" inkscape:label="Layer 1">
			<g id="g4340">
				<g id="g3971" transform="matrix(1.1795124,0,0,1.1761123,-163.82048,81.468861)">
					<path id="path3065" inkscape:connector-curvature="0" class="st9" d="M408.6-750.5c-3,0-6,1.3-6.8,4c-0.9,3-2.3,5.1-4.1,6.2
						c-2.2,1.3-3.6,0.9-6.3-1.9c-1.8-1.9-2.1-2-4.8-1.8c-2.9,0.2-5.1,1.4-6.5,3.4c-0.5,0.7-0.7,2.8-0.7,6.3c0,4.4-0.2,5.4-1.1,6.4
						c-0.9,0.9-1.5,1.1-3.1,0.9c-6.6-1-6.4-1.1-8.2,0.5c-4,3.3-4.5,7.2-1.5,10.4c2.1,2.3,3.1,4.3,3.1,6.5c0,1.9-1.4,3.1-4.4,3.8
						c-3.6,0.8-4.2,1.6-4.4,6.2c-0.2,5,0.5,6.4,3.8,7.4c2.9,0.9,4.4,1.9,5.7,3.8c1.4,1.9,1.2,2.4-1.6,5.5c-2.4,2.7-2.5,3-2.3,5.4
						c0.3,3.1,2,5.5,4.6,6.7c1.7,0.8,2.3,0.8,4,0.3c2.4-0.8,5.8-0.4,7.8,0.8c1.5,1,1.5,0.5,0.4,7.3c-0.6,3.7,3.2,7,8,7
						c2,0,2.6-0.3,5-2.7c1.5-1.5,3-2.7,3.3-2.7c2.2,0,6.1,3.5,6.1,5.5c0,0.6,0.8,1.9,1.9,2.9c1.7,1.6,2.2,1.8,4.9,1.8
						c4.2,0,6.4-1.4,7.3-4.7c0.8-3.1,3.7-6.1,5.8-6.1c1,0,2.3,0.7,3.9,2.3c2.1,2,2.7,2.3,4.9,2.2c1.7,0,3.1-0.5,4.6-1.5l2.1-1.5
						l1.3,1.4c1.6,1.8,1.5,4.2-0.2,4.5c-4.2,0.7-4.1,6.1,0.1,7.4c2.1,0.6,2.6,2.3,1.3,3.9c-1.5,1.9-1.4,3.7,0.2,5.4
						c1,1,1.7,1.3,2.8,1c0.8-0.2,2-0.2,2.8,0c1.2,0.3,1.4,0.6,1.4,2.7c0,4.1,3.2,5.9,6.3,3.5c2.2-1.7,3.7-1.4,4.6,0.8
						c0.4,1,1.1,2,1.5,2.1c1.1,0.4,3.4,0.4,4.2-0.1c0.4-0.2,1.1-1.3,1.7-2.2c1.4-2.7,2.6-3.2,4.1-1.7c1.7,1.5,3.2,1.5,5.1,0
						c1.3-1,1.5-1.5,1.2-2.9c-0.6-3.3,0-4,3-4c2.1,0,2.9-0.2,3.5-1.2c1.2-1.6,1.1-3.5-0.2-5.1c-1.6-1.9-1.4-3.2,0.5-4.2
						c3.1-1.6,3-6-0.1-7.4c-2-0.9-2.7-3.1-1.3-4.3c1.2-1,1.1-3.6-0.3-4.9c-1-0.9-1.6-1.1-3.6-0.8c-2.3,0.3-2.5,0.3-3-1.1
						c-0.3-0.8-0.4-1.9-0.3-2.4c0.2-0.5-0.2-1.6-0.9-2.4c-1.4-1.8-3.8-1.9-6-0.3c-1.9,1.4-3.7,1-4.2-0.9c-0.2-0.7-1-1.7-1.7-2.2
						c-2-1.3-4.1-0.4-5.5,2.2c-1.4,2.6-2.5,2.9-4.7,1.3l-1.7-1.2l2.1-2.2c2.6-2.7,3.2-5.3,2.1-8.1c-0.5-1.1-1.1-1.9-1.4-1.9
						c-0.9,0-2.1-2.2-2.7-4.7c-0.7-3,0.6-4.7,3.8-5.3c3-0.5,4.8-2,5.4-4.6c1-3.8-0.5-7.6-3.5-8.7c-0.9-0.3-2.4-0.9-3.2-1.2
						c-2-0.7-4.3-3.4-4.3-5.1c0-0.9,0.7-2,1.9-3.1c2.2-2,3.1-3.6,3.1-5.2c0-1.7-2-5.2-3.7-6.5c-1.4-1.1-1.9-1.1-5.6-0.8
						c-6.9,0.6-9.5-1-8.3-5.1c1.1-4.1,1.1-4.6-0.2-6.5c-1.6-2.3-4.4-3.8-7.2-3.8c-1.6,0-2.6,0.5-4.6,2.1c-4.1,3.4-8.7,3.5-9.5,0.2
						c-0.2-0.8-0.6-2.4-1-3.4C414.2-749.2,411.4-750.5,408.6-750.5L408.6-750.5z M409.9-727.1c7.6,0,15.5,3.1,21,8.6
						c11.1,10.9,10.9,28.7-0.3,39.6c-7.2,7-17.9,9.9-27.5,7.5c-10-2.6-17.9-10-20.9-19.8c-1.3-4.1-1.1-11.7,0.3-16.1
						c3.2-9.8,11.6-17,22.3-19.2C406.4-726.9,408.2-727.1,409.9-727.1z M462.7-666.2c4.1,0,9.3,2,11.7,4.5c3.7,3.8,5,10,3.4,15.2
						c-1,3.3-5.2,7.7-8.3,8.9c-8.1,3.1-16.2,0.7-20.3-6C443.1-653.7,450.6-666.2,462.7-666.2z"/>
					<path id="path3049" inkscape:connector-curvature="0" class="st9" d="M416-683c3.9-1.4,7-4,9-7.6c1.5-2.6,1.6-3.4,1.6-7.5
						c0-3.7-0.2-5.1-1.3-7.1c-5.1-10-18.2-12.5-26.7-5.1c-6.8,5.9-7.1,16.8-0.8,23.2C402.8-682.3,409.6-680.7,416-683z"/>
				</g>
				<path id="path3045" inkscape:connector-curvature="0" class="st9" d="M148.6-717.3c-3.9,0-7.8,0.6-10.8,1.9
					c-19.2,7.8-28.1,31.5-20,53.3c6,16.4,20.8,34.5,40.1,49.1c9.7,7.4,20.4,14.4,22,14.5c0.7,0,4.8-2.2,9-5
					c31.8-20.8,52.2-46.1,55.4-68.8c2.6-18.8-6.7-36.6-22.6-43.1c-6.2-2.5-16.3-2.5-22.2,0.1c-7.9,3.4-13.7,9-18.8,17.7
					c-0.9,1.5-0.9,1.5-1.8,0c-5.5-9.3-11.5-14.9-19-17.8C156.4-716.7,152.5-717.3,148.6-717.3L148.6-717.3z M139-705.1
					c2.9,0,4.2,4.6,1.8,6.3c-0.7,0.5-1.6,0.9-1.9,0.9c-1.6,0-3.2-1.9-3.2-3.9C135.6-704,136.8-705.1,139-705.1L139-705.1z
					 M132.2-699.5c0.9,0,1.7,0.4,2.5,1.2c1.4,1.6,1.2,3.5-0.7,6c-2.6,3.4-3.2,6.1-2.8,12.1c0.3,3.8,0.2,5.4-0.4,6.2
					c-1,1.3-2.8,1.7-4.4,1.1c-3.2-1.3-4-13.3-1.3-19.2C127.2-696.8,129.9-699.5,132.2-699.5L132.2-699.5z"/>
				<g id="g3101" transform="matrix(3.544892,0,0,2.8368728,2240.6,-1197.2209)">
					<path id="path3035" inkscape:connector-curvature="0" class="st9" d="M-593.9,145.9c-0.3,0-0.8-0.3-1-0.5
						c-0.4-0.4-0.4-0.5-0.6-10c-0.1-5.2-0.3-9.6-0.3-9.7c-0.1-0.1-0.5,0.1-0.9,0.4c-1.3,1-2.8,0.6-2.8-0.8c0-0.7-0.5-0.2,9.8-10.8
						c7.5-7.8,8-8.2,8.7-8.2c0.6,0,1.1,0.4,5.8,4.9c9.9,9.6,13,12.5,13.2,13c0.5,0.9-0.3,2-1.3,2c-0.3,0-0.8-0.2-1.1-0.5
						c-0.3-0.3-0.7-0.5-0.9-0.5c-0.3,0-0.3,0.6-0.2,9.6l0.1,9.6l-0.5,0.5c-0.4,0.4-0.6,0.5-4.1,0.6c-6.4,0.2-7,0.2-7.7-0.3l-0.5-0.5
						l-0.1-4.7c-0.1-3.6-0.2-4.7-0.3-4.7c-0.1,0-1.1,0-2.2,0l-1.9,0l0,4.6c0,2.5,0,4.8-0.1,5c-0.3,0.7-0.8,0.8-5.7,0.9
						C-591.1,146-593.5,146-593.9,145.9L-593.9,145.9z"/>
					<path id="path3031" inkscape:connector-curvature="0" class="st9" d="M-572.7,113.3c-2.1-2-3.6-3.6-3.7-3.9
						c-0.2-0.7,0.3-1.5,1-1.7c0.4-0.1,1.9-0.2,4-0.2l3.4,0l0.5,0.5c0.5,0.5,0.5,0.6,0.5,4.2c0.1,3.6,0,3.8-0.3,4.2
						c-0.3,0.3-0.6,0.4-1.1,0.4C-569.1,116.7-569.5,116.4-572.7,113.3L-572.7,113.3z"/>
					<path id="path3009" inkscape:connector-curvature="0" class="st9" d="M-567.6,116.1c0.4-0.4,0.4-0.6,0.3-4c0-2.4-0.1-3.7-0.3-4
						c-0.3-0.6-1.2-0.7-4.8-0.5c-3.5,0.2-3.8,0.3-3.8,1.3c0,0.6,0.6,1.2,5.6,6C-568.8,116.7-568.3,116.9-567.6,116.1z"/>
				</g>
			</g>
			<path id="path3095-7" inkscape:connector-curvature="0" class="st10" d="M79.5-739.7c5.4,2.8,11.3-0.3,13.6-7.3
				c1.4-4.1,2.1-5,5.2-6.7c2-1.1,7.1-4.1,11.4-6.7c5.5-3.4,8.5-4.7,10.3-4.6c1.4,0.1,3.4,0,4.3-0.3c1.8-0.5,20.8,6.4,21.8,8
				c0.3,0.4,0.4,2.9,0.3,5.6c-0.2,4.2,0.3,5.6,3.6,10.6c3.1,4.8,4.4,6,7.2,6.9c1.9,0.6,3.7,1.5,4.1,2.1c1.1,1.7,1.8,22.2,0.8,23.5
				c-0.5,0.7-1.3,2.5-1.7,3.9c-0.5,1.7-3.6,5.3-9.2,10.5c-8.2,7.7-8.6,8-11.7,8c-4.9,0.1-6.6,0.9-8.7,3.8c-2.1,2.8-2.2,7.7-0.4,10.6
				c1.7,2.6,8.5,3.3,11.6,1.1c2.5-1.8,4.7-7.8,4-10.8c-0.2-0.7,3.2-5.1,7.8-10c11.1-12,10.7-11.9,21-1.5c7.5,7.6,8.2,8.4,7.8,10.6
				c-1.1,6.2,4.1,11,10.1,9.5c6.5-1.6,9-10.3,4.2-14.9c-1.8-1.7-4.5-2.2-9.5-1.8c-1.1,0.1-5.2-2.6-9.8-6.6
				c-10.7-9.1-11.9-11.9-11.2-25.8c0.4-8.1,0.9-10.5,2.4-11.1c2-0.8,10.2-6.8,13.6-9.9c1.7-1.5,6.3-1.4,28.7,0.8
				c24.5,2.4,26.8,2.9,28.4,5.3c2,3,4.8,4.7,8.3,4.8c2.4,0.1,2.9,0.8,16.7,23.4l14.3,23.3l-2.4,5.1c-4,8.5-1.6,17.8,6.1,24.1
				c2.8,2.2,2.9,2.8,3.4,12.2c0.3,5.4-0.1,11.1-0.8,12.6c-0.7,1.5-1.3,3.2-1.3,3.9c-0.1,1.2-11.5,12.4-16,15.6
				c-1.5,1.1-4.3,2.1-6.4,2.3c-5,0.4-7.1,2.1-8.6,6.8c-2.4,7.7,5.6,13.3,12.2,8.6c2.6-1.9,3.3-3.1,4-7.6c0.8-5,1.3-5.9,7.8-12.8
				c8.3-8.8,9.5-9.8,12.1-9.4c1.1,0.2,5.4,3.8,9.5,8l7.6,7.7l-0.2,3.4c-0.3,4.7,2.3,8.3,6.4,9c6.9,1.1,13-7.2,9.3-12.7
				c-2.4-3.7-4.5-4.6-9-4.2c-3.4,0.3-4.5-0.3-11.5-6.3c-10.2-8.7-11.8-12.2-11.5-24.2c0.2-4.8,0.6-8.9,0.9-9.1
				c0.3-0.2,2.6-0.8,4.9-1.2c6.1-1,12-5.5,14.9-11.3c2.7-5.3,0.5-4.9,19-3.1c7.8,0.8,11.7,1.7,12.5,2.9c0.6,1,2.1,1.8,3.2,1.9
				c1.8,0.1,2.9,1.6,9,11.9l7,11.8l-0.9,5.3c-1.2,7.2,1,10.7,7.4,11.7c5.2,0.8,8.7-1,11.4-5.9c2.1-3.7,1.9-6.4-0.7-10.4
				c-1.7-2.6-3-3.3-7.3-4.1l-5.2-0.9l-7.5-10.4c-6-8.3-7.5-10.9-7.4-13c0-1.4-0.4-3.3-1-4.2c-0.7-1,0.5-6.5,3.3-15.8l4.3-14.2
				l4.1-2.3c3.7-2,4.3-2.8,5.3-6.5c2.7-10-7.2-16.4-15.8-10.2c-1.3,0.9-2.5,3.3-3.1,6.2c-0.9,4.1-0.7,5.3,1.5,8.6
				c2.5,3.8,2.5,4-0.5,17.4c-4,18.1-3.7,17.9-21.9,14.9c-13.1-2.1-13.9-2.4-14.4-5c-1.3-6.3-7.6-12.5-14.1-13.8
				c-1.7-0.3-4.9-0.3-7.2,0.1c-3.6,0.6-4.3,0.3-6.1-2.3c-1.1-1.6-8.2-11.4-15.8-21.8l-13.8-18.8l0.7-4.3c0.5-3.2,0.1-5.1-1.4-7.5
				c-2-3.1-2-3.4,6.3-30.8c6.7-22.2,8.7-27.8,10.4-28.3c3.5-1.1,9.5-4.8,12.2-7.5c5.2-5.2,6.3-17,2.3-23.3c-1-1.5-3.5-4.1-5.7-5.6
				c-2.1-1.5-3.8-3-3.7-3.3c0.1-0.3,1.5-4.9,3-10.3c3.8-13.2,5.8-15.4,18.8-21.3c9.2-4.1,10-4.3,14.8-3.3c4.2,0.9,5.5,0.8,8.2-1.1
				c4.4-3.1,5.4-7.7,2.8-11.8c-4.1-6.3-12.5-4.4-15.3,3.4l-1.4,3.8l-10.7,5.6c-7.7,4-11.2,5.4-12.6,5c-1.5-0.5-2.8-2.7-6.5-11
				c-4.4-10-4.5-10.5-3.2-14.8c1.9-5.8-0.4-9.7-6.2-10.6c-4.9-0.8-7.7,1.1-9.3,6.2c-1.6,5.1,0.9,9.4,6.1,10.3l3.5,0.6l5.1,9.7
				c6.7,12.8,6.9,15.7,2,28.7l-3.8,10.1l-4.7,1.4c-7.4,2.2-12.7,6.4-15.4,12.5c-3.7,8.1-2.3,15.3,4.5,22.6l2.9,3.2l-6.2,27.5
				l-6.2,27.5l-4.5,3.2l-4.5,3.2l-26.7-5c-20.1-3.8-26.7-5.4-27-6.8c-0.6-3.6-3.9-9-6.7-11.2c-4-3-11.8-4.6-16.1-3.2
				c-1.9,0.6-5.7,2.9-8.4,5l-4.9,3.9l-10.5-3.5c-5.8-1.9-11-4.3-11.7-5.2c-1.4-2.1-0.8-4.4,4.5-17.7c3.9-9.9,4.1-10.1,8.4-12.5
				c4-2.2,4.5-2.7,5.6-6.8c1.6-5.6-1.1-10.5-6.2-11.5c-9.1-1.7-15.4,8.1-10.2,16.2c1.5,2.4,1.3,4-2.5,15.9
				c-2.3,7.3-4.9,13.8-5.8,14.4c-0.9,0.6-2.1,2-2.6,3c-0.7,1.2-4.8,3.7-12.7,7.7c-11.6,5.9-11.8,5.9-16.5,4.8
				c-5.8-1.4-10.3,0.4-12.5,5C73.1-747.2,74.5-742.3,79.5-739.7L79.5-739.7z"/>
		</g>
	</g>
	<g>
		<path class="st5" d="M508.6,199.6l47.3-64.5h14L530,189l41.4,58.1h-14.6l-34.6-49.4l-13.5,17.7v31.6h-12.3v-112h12.3V199.6z"/>
		<path class="st5" d="M600.6,163.1c4.3-1.8,9-2.7,14.2-2.7c5.2,0,10,0.9,14.2,2.7c4.3,1.8,7.8,4.2,10.5,7.2
			c2.1,2.3,3.8,4.8,5.1,7.6c1.3,2.7,2.2,5.7,2.7,9.1c0.5,3.3,0.8,6.1,0.9,8.3c0.1,2.2,0.2,5.2,0.2,9.1s-0.1,6.9-0.2,9.1
			c-0.1,2.2-0.4,5-0.9,8.3c-0.5,3.3-1.4,6.4-2.7,9.1c-1.3,2.7-3,5.2-5.1,7.6c-2.7,3-6.2,5.4-10.5,7.2c-4.3,1.8-9,2.7-14.2,2.7
			c-5.2,0-10-0.9-14.2-2.7c-4.3-1.8-7.8-4.2-10.5-7.2c-2.1-2.3-3.8-4.8-5.1-7.6c-1.3-2.7-2.2-5.7-2.7-9.1c-0.5-3.3-0.8-6.1-0.9-8.3
			c-0.1-2.2-0.2-5.2-0.2-9.1s0.1-6.9,0.2-9.1c0.1-2.2,0.4-5,0.9-8.3c0.5-3.3,1.4-6.4,2.7-9.1c1.3-2.7,3-5.2,5.1-7.6
			C592.8,167.3,596.3,164.9,600.6,163.1z M614.8,170.9c-6.9,0-12.1,2.1-15.7,6.2c-1.4,1.6-2.6,3.5-3.4,5.5c-0.9,2-1.5,4.4-1.8,7.1
			c-0.3,2.7-0.6,5-0.6,6.8c-0.1,1.8-0.1,4.4-0.1,7.8c0,3.4,0,6,0.1,7.8c0.1,1.8,0.3,4.1,0.6,6.8c0.3,2.7,0.9,5.1,1.8,7.1
			c0.9,2,2,3.9,3.4,5.5c3.6,4.2,8.9,6.2,15.7,6.2c6.9,0,12.1-2.1,15.7-6.2c1.4-1.6,2.6-3.5,3.4-5.5c0.9-2,1.5-4.4,1.8-7.1
			c0.3-2.7,0.6-5,0.6-6.8c0.1-1.8,0.1-4.4,0.1-7.8c0-3.4,0-6-0.1-7.8c-0.1-1.8-0.3-4.1-0.6-6.8c-0.3-2.7-0.9-5.1-1.8-7.1
			c-0.9-2-2-3.9-3.4-5.5C626.9,173,621.7,170.9,614.8,170.9z"/>
		<path class="st5" d="M669.4,223.2v-51.8h-11.9v-9.8h11.9v-18.5h11.9v18.5H697v9.8h-15.8v51.8c0,5.7,0.2,9.1,0.7,10.3
			c1.2,2.9,3.5,4.4,6.8,4.4c2.7,0,5.7-0.8,9-2.5l4.6,9.8c-5.1,2.2-9.9,3.3-14.4,3.3c-4.5,0-8.3-1.1-11.4-3.2
			c-3.1-2.2-5.2-5.2-6.4-9.3C669.6,233.9,669.4,229.7,669.4,223.2z"/>
		<path class="st5" d="M731.2,163.1c4.3-1.8,9-2.7,14.2-2.7c5.2,0,10,0.9,14.2,2.7c4.3,1.8,7.8,4.2,10.5,7.2
			c2.1,2.3,3.8,4.8,5.1,7.6c1.3,2.7,2.2,5.7,2.7,9.1c0.5,3.3,0.8,6.1,0.9,8.3c0.1,2.2,0.2,5.2,0.2,9.1s-0.1,6.9-0.2,9.1
			c-0.1,2.2-0.4,5-0.9,8.3c-0.5,3.3-1.4,6.4-2.7,9.1c-1.3,2.7-3,5.2-5.1,7.6c-2.7,3-6.2,5.4-10.5,7.2c-4.3,1.8-9,2.7-14.2,2.7
			c-5.2,0-10-0.9-14.2-2.7c-4.3-1.8-7.8-4.2-10.5-7.2c-2.1-2.3-3.8-4.8-5.1-7.6c-1.3-2.7-2.2-5.7-2.7-9.1c-0.5-3.3-0.8-6.1-0.9-8.3
			c-0.1-2.2-0.2-5.2-0.2-9.1s0.1-6.9,0.2-9.1c0.1-2.2,0.4-5,0.9-8.3c0.5-3.3,1.4-6.4,2.7-9.1c1.3-2.7,3-5.2,5.1-7.6
			C723.4,167.3,726.9,164.9,731.2,163.1z M745.4,170.9c-6.9,0-12.1,2.1-15.7,6.2c-1.4,1.6-2.6,3.5-3.4,5.5c-0.9,2-1.5,4.4-1.8,7.1
			c-0.3,2.7-0.6,5-0.6,6.8c-0.1,1.8-0.1,4.4-0.1,7.8c0,3.4,0,6,0.1,7.8c0.1,1.8,0.3,4.1,0.6,6.8c0.3,2.7,0.9,5.1,1.8,7.1
			c0.9,2,2,3.9,3.4,5.5c3.6,4.2,8.9,6.2,15.7,6.2c6.9,0,12.1-2.1,15.7-6.2c1.4-1.6,2.6-3.5,3.4-5.5c0.9-2,1.5-4.4,1.8-7.1
			c0.3-2.7,0.6-5,0.6-6.8c0.1-1.8,0.1-4.4,0.1-7.8c0-3.4,0-6-0.1-7.8c-0.1-1.8-0.3-4.1-0.6-6.8c-0.3-2.7-0.9-5.1-1.8-7.1
			c-0.9-2-2-3.9-3.4-5.5C757.5,173,752.3,170.9,745.4,170.9z"/>
		<path class="st6" d="M528.1,266.1c9.9,0,19,3,27.4,8.9l-5.9,8.8c-6.9-4.9-14.1-7.4-21.5-7.4c-10.2,0-17,4.2-20.7,12.5
			c-1.6,3.6-2.6,7.8-3,12.7c-0.4,4.9-0.7,10.8-0.7,17.9s0.2,13,0.7,17.9c0.4,4.9,1.4,9.1,3,12.7c3.6,8.3,10.5,12.5,20.7,12.5
			c9,0,16.9-2.9,23.7-8.7l6.4,8.5c-8.9,7-19,10.5-30.2,10.5c-7.6,0-14-1.7-19.4-5.1c-5.3-3.4-9.3-8-11.9-13.8
			c-1.3-2.9-2.3-6.5-3-10.7c-0.7-4.2-1.1-8-1.2-11.2c-0.1-3.2-0.2-7.4-0.2-12.5c0-7.8,0.3-14.5,0.8-20c0.6-5.5,1.8-10.3,3.6-14.4
			c2.7-5.9,6.7-10.5,12.1-13.8C514.2,267.8,520.6,266.1,528.1,266.1z"/>
		<path class="st6" d="M583.6,293.3c4-1.7,8.4-2.5,13.2-2.5c4.8,0,9.2,0.8,13.2,2.5c4,1.7,7.2,3.9,9.7,6.7c2,2.1,3.5,4.5,4.7,7
			c1.2,2.5,2,5.3,2.5,8.4c0.5,3.1,0.7,5.7,0.8,7.7c0.1,2,0.1,4.8,0.1,8.5c0,3.6,0,6.4-0.1,8.5c-0.1,2-0.4,4.6-0.8,7.7
			c-0.5,3.1-1.3,5.9-2.5,8.4c-1.2,2.5-2.8,4.8-4.7,7c-2.5,2.8-5.8,5-9.7,6.7c-4,1.7-8.4,2.5-13.2,2.5c-4.8,0-9.2-0.8-13.2-2.5
			c-4-1.7-7.2-3.9-9.7-6.7c-2-2.1-3.5-4.5-4.7-7c-1.2-2.5-2-5.3-2.5-8.4c-0.5-3.1-0.7-5.7-0.8-7.7c-0.1-2-0.1-4.8-0.1-8.5
			c0-3.6,0-6.4,0.1-8.5c0.1-2,0.4-4.6,0.8-7.7c0.5-3.1,1.3-5.9,2.5-8.4c1.2-2.5,2.8-4.8,4.7-7C576.4,297.3,579.7,295,583.6,293.3z
			 M596.8,300.6c-6.3,0-11.2,1.9-14.6,5.8c-1.3,1.5-2.4,3.2-3.2,5.1c-0.8,1.9-1.4,4.1-1.7,6.6c-0.3,2.5-0.5,4.6-0.6,6.3
			c-0.1,1.7-0.1,4.1-0.1,7.2c0,3.1,0,5.5,0.1,7.2c0.1,1.7,0.3,3.8,0.6,6.3c0.3,2.5,0.9,4.7,1.7,6.6c0.8,1.9,1.9,3.6,3.2,5.1
			c3.4,3.9,8.2,5.8,14.6,5.8c6.3,0,11.2-1.9,14.6-5.8c1.3-1.5,2.4-3.2,3.2-5.1c0.8-1.9,1.4-4.1,1.7-6.6c0.3-2.5,0.5-4.6,0.6-6.3
			c0.1-1.7,0.1-4.1,0.1-7.2c0-3.1,0-5.5-0.1-7.2c-0.1-1.7-0.3-3.8-0.6-6.3c-0.3-2.5-0.9-4.7-1.7-6.6c-0.8-1.9-1.9-3.6-3.2-5.1
			C608,302.6,603.2,300.6,596.8,300.6z"/>
		<path class="st6" d="M657.7,293.3c4-1.7,8.4-2.5,13.2-2.5c4.8,0,9.2,0.8,13.2,2.5c4,1.7,7.2,3.9,9.7,6.7c2,2.1,3.5,4.5,4.7,7
			c1.2,2.5,2,5.3,2.5,8.4c0.5,3.1,0.7,5.7,0.8,7.7c0.1,2,0.1,4.8,0.1,8.5c0,3.6,0,6.4-0.1,8.5c-0.1,2-0.4,4.6-0.8,7.7
			c-0.5,3.1-1.3,5.9-2.5,8.4c-1.2,2.5-2.8,4.8-4.7,7c-2.5,2.8-5.8,5-9.7,6.7c-4,1.7-8.4,2.5-13.2,2.5c-4.8,0-9.2-0.8-13.2-2.5
			c-4-1.7-7.2-3.9-9.7-6.7c-2-2.1-3.5-4.5-4.7-7c-1.2-2.5-2-5.3-2.5-8.4c-0.5-3.1-0.7-5.7-0.8-7.7c-0.1-2-0.1-4.8-0.1-8.5
			c0-3.6,0-6.4,0.1-8.5c0.1-2,0.4-4.6,0.8-7.7c0.5-3.1,1.3-5.9,2.5-8.4c1.2-2.5,2.8-4.8,4.7-7C650.5,297.3,653.8,295,657.7,293.3z
			 M670.9,300.6c-6.3,0-11.2,1.9-14.6,5.8c-1.3,1.5-2.4,3.2-3.2,5.1c-0.8,1.9-1.4,4.1-1.7,6.6c-0.3,2.5-0.5,4.6-0.6,6.3
			c-0.1,1.7-0.1,4.1-0.1,7.2c0,3.1,0,5.5,0.1,7.2c0.1,1.7,0.3,3.8,0.6,6.3c0.3,2.5,0.9,4.7,1.7,6.6c0.8,1.9,1.9,3.6,3.2,5.1
			c3.4,3.9,8.2,5.8,14.6,5.8c6.3,0,11.2-1.9,14.6-5.8c1.3-1.5,2.4-3.2,3.2-5.1c0.8-1.9,1.4-4.1,1.7-6.6c0.3-2.5,0.5-4.6,0.6-6.3
			c0.1-1.7,0.1-4.1,0.1-7.2c0-3.1,0-5.5-0.1-7.2c-0.1-1.7-0.3-3.8-0.6-6.3c-0.3-2.5-0.9-4.7-1.7-6.6c-0.8-1.9-1.9-3.6-3.2-5.1
			C682.1,302.6,677.3,300.6,670.9,300.6z"/>
		<path class="st6" d="M746.3,290.8c5,0,9.5,1.1,13.6,3.2c4.1,2.1,7.2,5,9.5,8.5c2.4,3.8,4,7.8,4.8,12.1c0.7,4.3,1.1,10,1.1,17
			c0,7-0.4,12.6-1.1,17c-0.7,4.3-2.3,8.4-4.8,12.1c-2.3,3.5-5.5,6.3-9.5,8.5c-4.1,2.1-8.6,3.2-13.6,3.2c-8.2,0-15.1-3.2-20.9-9.6
			v38.8h-11V292h11v8.4C731.2,294,738.1,290.8,746.3,290.8z M744.8,300.6c-6.5,0-11.6,2.4-15,7.2c-1.9,2.5-3.1,5.6-3.6,9.2
			c-0.5,3.6-0.8,8.5-0.8,14.6c0,6.1,0.3,11,0.8,14.6c0.5,3.6,1.7,6.7,3.6,9.2c3.5,4.8,8.5,7.2,15,7.2c6.5,0,11.5-2.4,15-7.2
			c1.9-2.5,3.1-5.6,3.6-9.2c0.5-3.6,0.8-8.5,0.8-14.6c0-6.1-0.3-11-0.8-14.6c-0.5-3.6-1.7-6.7-3.6-9.2
			C756.4,303,751.4,300.6,744.8,300.6z"/>
	</g>
</g>
<rect x="3396.9" y="1447.1" style="fill:none;" width="4" height="20"/>
</svg>
